INDEX VERSION 1.131+D:\NousGitlabons\my_shop_maven\ci-myshop-empty-sample-1\.metadata\.plugins\org.eclipse.jdt.core
4075419304.index
3991135902.index
2102515725.index
3339339020.index
2304911147.index
536745531.index
625289772.index
383827975.index
1253452193.index
2513918375.index
2504246175.index
2435432913.index
654717868.index
4279352321.index
1065760799.index
4102373108.index
3481725408.index
3506654133.index
2728898164.index
3018169035.index
278338947.index
2135318137.index
299607678.index
3595052036.index
133969532.index
1632238658.index
3962970636.index
2247224413.index
3469683795.index
344841355.index
